<?xml version="1.0" encoding="UTF-8" standalone="no"?>
<!-- Created with Inkscape (http://www.inkscape.org/) -->

<svg
   xmlns:dc="http://purl.org/dc/elements/1.1/"
   xmlns:cc="http://creativecommons.org/ns#"
   xmlns:rdf="http://www.w3.org/1999/02/22-rdf-syntax-ns#"
   xmlns:svg="http://www.w3.org/2000/svg"
   xmlns="http://www.w3.org/2000/svg"
   xmlns:sodipodi="http://sodipodi.sourceforge.net/DTD/sodipodi-0.dtd"
   xmlns:inkscape="http://www.inkscape.org/namespaces/inkscape"
   width="297mm"
   height="210mm"
   viewBox="0 0 297 210"
   version="1.1"
   id="svg8"
   inkscape:version="0.92.1 r15371"
   sodipodi:docname="FarbschemaEinstellungen.svg"
   inkscape:export-filename="E:\Softwareentwicklung\Projects\Liedanzeige-TechnicalDocuments\Software\GUI\FarbschemaEinstellungen.png"
   inkscape:export-xdpi="96"
   inkscape:export-ydpi="96">
  <defs
     id="defs2" />
  <sodipodi:namedview
     id="base"
     pagecolor="#ffffff"
     bordercolor="#666666"
     borderopacity="1.0"
     inkscape:pageopacity="0.0"
     inkscape:pageshadow="2"
     inkscape:zoom="0.35"
     inkscape:cx="385.17398"
     inkscape:cy="354.3596"
     inkscape:document-units="mm"
     inkscape:current-layer="g4507"
     showgrid="false"
     inkscape:window-width="828"
     inkscape:window-height="696"
     inkscape:window-x="523"
     inkscape:window-y="0"
     inkscape:window-maximized="0" />
  <metadata
     id="metadata5">
    <rdf:RDF>
      <cc:Work
         rdf:about="">
        <dc:format>image/svg+xml</dc:format>
        <dc:type
           rdf:resource="http://purl.org/dc/dcmitype/StillImage" />
        <dc:title />
      </cc:Work>
    </rdf:RDF>
  </metadata>
  <g
     inkscape:label="Ebene 1"
     inkscape:groupmode="layer"
     id="layer1"
     transform="translate(0,-87)">
    <rect
       style="opacity:1;fill:#ffffff;fill-opacity:1;stroke:#000000;stroke-width:0.18169722;stroke-linejoin:round;stroke-miterlimit:4;stroke-dasharray:none;stroke-dashoffset:519.79278564;stroke-opacity:1"
       id="rect3680"
       width="298.28311"
       height="210.93515"
       x="0.080657281"
       y="85.984207" />
    <g
       id="g4507"
       transform="matrix(1.2480194,0,0,1.2480194,-36.830881,-72.315089)">
      <flowRoot
         transform="matrix(0.5986638,0,0,0.5986638,43.004601,49.01943)"
         style="font-style:normal;font-weight:normal;font-size:17.5px;line-height:125%;font-family:sans-serif;letter-spacing:0px;word-spacing:0px;fill:#00005a;fill-opacity:1;stroke:none;stroke-width:1px;stroke-linecap:butt;stroke-linejoin:miter;stroke-opacity:1;"
         id="flowRoot3682"
         xml:space="preserve"><flowRegion
           style="fill:#00005a;fill-opacity:1;"
           id="flowRegion3684"><rect
             style="fill:#00005a;fill-opacity:1;"
             y="139.66254"
             x="68.571426"
             height="105.71429"
             width="405.71429"
             id="rect3686" /></flowRegion><flowPara
           style="font-size:85.33333588px;line-height:120.00000477%;text-align:start;text-anchor:start;fill:#00005a;fill-opacity:1;"
           id="flowPara3688">TEXT</flowPara></flowRoot>      <flowRoot
         style="font-style:normal;font-weight:normal;font-size:17.5px;line-height:125%;font-family:sans-serif;letter-spacing:0px;word-spacing:0px;fill:#2fb92f;fill-opacity:1;stroke:none;stroke-width:1px;stroke-linecap:butt;stroke-linejoin:miter;stroke-opacity:1;"
         id="flowRoot3682-5"
         xml:space="preserve"
         transform="matrix(0.5986638,0,0,0.5986638,68.622423,102.851)"><flowRegion
           style="fill:#2fb92f;fill-opacity:1;"
           id="flowRegion3684-4"><rect
             style="fill:#2fb92f;fill-opacity:1;"
             y="139.66254"
             x="68.571426"
             height="105.71429"
             width="405.71429"
             id="rect3686-8" /></flowRegion><flowPara
           style="font-size:85.33333588px;line-height:120.00000477%;text-align:start;text-anchor:start;fill:#2fb92f;fill-opacity:1;"
           id="flowPara3688-1">OK</flowPara></flowRoot>      <flowRoot
         style="font-style:normal;font-weight:normal;font-size:17.5px;line-height:125%;font-family:sans-serif;letter-spacing:0px;word-spacing:0px;fill:#237dff;fill-opacity:1;stroke:none;stroke-width:1px;stroke-linecap:butt;stroke-linejoin:miter;stroke-opacity:1;"
         id="flowRoot3682-4"
         xml:space="preserve"
         transform="matrix(0.5986638,0,0,0.5986638,-7.1459626,156.68261)"><flowRegion
           style="fill:#237dff;fill-opacity:1;"
           id="flowRegion3684-44"><rect
             style="fill:#237dff;fill-opacity:1;"
             y="139.66254"
             x="68.571426"
             height="105.71429"
             width="405.71429"
             id="rect3686-0" /></flowRegion><flowPara
           style="font-size:85.33333588px;line-height:120.00000477%;text-align:start;text-anchor:start;fill:#237dff;fill-opacity:1;"
           id="flowPara3688-5">EINGABE</flowPara></flowRoot>    </g>
  </g>
</svg>
